XFlow_out/flow_out_tb.vcd
$date
     Nov 03, 2023       20:58:03
$end

$version
 SystemC 2.3.4-Accellera --- Jul 16 2023 12:27:40
$end

$timescale
     1 ps
$end

$scope module SystemC $end
$var wire    9  aaaaa  data_o [8:0]  $end
$var wire    9  aaaab  data_i [8:0]  $end
$var wire    1  aaaac  rd_o       $end
$var wire    1  aaaad  val_o       $end
$var wire    1  aaaae  rok_i       $end
$var wire    1  aaaaf  ack_i       $end
$var wire    1  aaaag  rst_i       $end
$var wire    1  aaaah  clk_i       $end
$upscope $end
$enddefinitions  $end

$comment
All initial values are dumped below at time 0 sec = 0 timescale units.
$end

$dumpvars
b0 aaaaa
b0 aaaab
0aaaac
0aaaad
0aaaae
0aaaaf
1aaaag
1aaaah
$end

#5000
0aaaah

#10000
0aaaag
1aaaah

#15000
0aaaah

#20000
b100000001 aaaaa
b100000001 aaaab
1aaaad
1aaaae
1aaaah

#25000
0aaaah

#30000
1aaaac
0aaaae
1aaaaf
1aaaah

#35000
0aaaah

#40000
b11 aaaaa
b11 aaaab
0aaaac
0aaaad
1aaaae
1aaaah

#45000
0aaaah

#50000
0aaaae
0aaaaf
1aaaah

#55000
0aaaah

#60000
b111 aaaaa
b111 aaaab
1aaaad
1aaaae
1aaaah

#65000
0aaaah

#70000
1aaaac
0aaaae
1aaaaf
1aaaah

#75000
0aaaah

#80000
b1111 aaaaa
b1111 aaaab
0aaaac
0aaaad
1aaaae
1aaaah

#85000
0aaaah

#90000
0aaaae
0aaaaf
1aaaah

#95000
0aaaah

#100000
b11111 aaaaa
b11111 aaaab
1aaaad
1aaaae
1aaaah

#105000
0aaaah

#110000
1aaaac
0aaaae
1aaaaf
1aaaah

#115000
0aaaah

#120000
b111111 aaaaa
b111111 aaaab
0aaaac
0aaaad
1aaaae
1aaaah

#125000
0aaaah

#130000
0aaaae
0aaaaf
1aaaah

#135000
0aaaah

#140000
b1111111 aaaaa
b1111111 aaaab
1aaaad
1aaaae
1aaaah

#145000
0aaaah

#150000
1aaaac
0aaaae
1aaaaf
1aaaah

#155000
0aaaah

#160000
b111111110 aaaaa
b111111110 aaaab
0aaaac
0aaaad
1aaaae
1aaaah

#165000
0aaaah

#170000
0aaaae
0aaaaf
1aaaah

#175000
0aaaah

#180000
b111111100 aaaaa
b111111100 aaaab
1aaaad
1aaaae
1aaaah

#185000
0aaaah

#190000
1aaaac
0aaaae
1aaaaf
1aaaah

#195000
0aaaah

#200000
b111111000 aaaaa
b111111000 aaaab
0aaaac
0aaaad
1aaaae
1aaaah

#205000
0aaaah

#210000
0aaaae
0aaaaf
1aaaah

