XFlow_in/flow_in.vcd
$date
     Dec 05, 2023       20:05:57
$end

$version
 SystemC 2.3.4-Accellera --- Jul 16 2023 12:27:40
$end

$timescale
     1 ps
$end

$scope module SystemC $end
$var wire    9  aaaaa  data_o [8:0]  $end
$var wire    9  aaaab  data_i [8:0]  $end
$var wire    1  aaaac  wr_o       $end
$var wire    1  aaaad  ack_o       $end
$var wire    1  aaaae  wok_i       $end
$var wire    1  aaaaf  val_i       $end
$var wire    1  aaaag  rst_i       $end
$var wire    1  aaaah  clk_i       $end
$upscope $end
$enddefinitions  $end

$comment
All initial values are dumped below at time 0 sec = 0 timescale units.
$end

$dumpvars
b0 aaaaa
b0 aaaab
0aaaac
0aaaad
1aaaae
1aaaaf
1aaaag
1aaaah
$end

#5000
0aaaah

#10000
0aaaag
1aaaah

#15000
1aaaac
1aaaad
0aaaah

#20000
0aaaae
0aaaaf
1aaaah

#25000
0aaaac
0aaaah

#30000
b100000001 aaaaa
b100000001 aaaab
1aaaae
1aaaah

#35000
0aaaad
0aaaah

#40000
1aaaaf
1aaaah

#45000
0aaaah

#50000
1aaaah

#55000
1aaaac
1aaaad
0aaaah

#60000
0aaaae
0aaaaf
1aaaah

#65000
0aaaac
0aaaah

#70000
b11 aaaaa
b11 aaaab
1aaaae
1aaaah

#75000
0aaaad
0aaaah

#80000
1aaaaf
1aaaah

#85000
0aaaah

#90000
1aaaah

#95000
1aaaac
1aaaad
0aaaah

#100000
0aaaae
0aaaaf
1aaaah

#105000
0aaaac
0aaaah

#110000
b111 aaaaa
b111 aaaab
1aaaae
1aaaah

#115000
0aaaad
0aaaah

#120000
1aaaaf
1aaaah

#125000
0aaaah

#130000
1aaaah

#135000
1aaaac
1aaaad
0aaaah

#140000
0aaaae
0aaaaf
1aaaah

#145000
0aaaac
0aaaah

#150000
b1111 aaaaa
b1111 aaaab
1aaaae
1aaaah

#155000
0aaaad
0aaaah

#160000
1aaaaf
1aaaah

#165000
0aaaah

#170000
1aaaah

#175000
1aaaac
1aaaad
0aaaah

#180000
0aaaae
0aaaaf
1aaaah

#185000
0aaaac
0aaaah

#190000
b11111 aaaaa
b11111 aaaab
1aaaae
1aaaah

#195000
0aaaad
0aaaah

#200000
1aaaaf
1aaaah

#205000
0aaaah

#210000
1aaaah

#215000
1aaaac
1aaaad
0aaaah

#220000
0aaaae
0aaaaf
1aaaah

#225000
0aaaac
0aaaah

#230000
b111111 aaaaa
b111111 aaaab
1aaaae
1aaaah

#235000
0aaaad
0aaaah

#240000
1aaaaf
1aaaah

#245000
0aaaah

#250000
1aaaah

#255000
1aaaac
1aaaad
0aaaah

#260000
0aaaae
0aaaaf
1aaaah

#265000
0aaaac
0aaaah

#270000
b1111111 aaaaa
b1111111 aaaab
1aaaae
1aaaah

#275000
0aaaad
0aaaah

#280000
1aaaaf
1aaaah

#285000
0aaaah

#290000
1aaaah

#295000
1aaaac
1aaaad
0aaaah

#300000
0aaaae
0aaaaf
1aaaah

#305000
0aaaac
0aaaah

#310000
b111111111 aaaaa
b111111111 aaaab
1aaaae
1aaaah

#315000
0aaaad
0aaaah

#320000
1aaaaf
1aaaah

#325000
0aaaah

#330000
1aaaah

#335000
1aaaac
1aaaad
0aaaah

#340000
0aaaae
0aaaaf
1aaaah

#345000
0aaaac
0aaaah

#350000
1aaaae
1aaaah

#355000
0aaaad
0aaaah

#360000
1aaaaf
1aaaah

#365000
0aaaah

#370000
1aaaah

#375000
1aaaac
1aaaad
0aaaah

#380000
0aaaae
0aaaaf
1aaaah

#385000
0aaaac
0aaaah

#390000
1aaaae
1aaaah

#395000
0aaaad
0aaaah

#400000
1aaaaf
1aaaah

#405000
0aaaah

#410000
1aaaah

#415000
1aaaac
1aaaad
0aaaah

#420000
0aaaae
0aaaaf
1aaaah

#425000
0aaaac
0aaaah

#430000
1aaaae
1aaaah

#435000
0aaaad
0aaaah

