XRouter/router_tb_mode_1.vcd
$date
     Nov 04, 2023       20:24:51
$end

$version
 SystemC 2.3.4-Accellera --- Jul 16 2023 12:27:40
$end

$timescale
     1 ps
$end

$scope module SystemC $end
$var wire    1  aaaaa  w_out_ack_i       $end
$var wire    1  aaaab  w_out_val_o       $end
$var wire    9  aaaac  w_out_data_o [8:0]  $end
$var wire    1  aaaad  w_in_ack_o       $end
$var wire    1  aaaae  w_in_val_i       $end
$var wire    9  aaaaf  w_in_data_i [8:0]  $end
$var wire    1  aaaag  s_out_ack_i       $end
$var wire    1  aaaah  s_out_val_o       $end
$var wire    9  aaaai  s_out_data_o [8:0]  $end
$var wire    1  aaaaj  s_in_ack_o       $end
$var wire    1  aaaak  s_in_val_i       $end
$var wire    9  aaaal  s_in_data_i [8:0]  $end
$var wire    1  aaaam  e_out_ack_i       $end
$var wire    1  aaaan  e_out_val_o       $end
$var wire    9  aaaao  e_out_data_o [8:0]  $end
$var wire    1  aaaap  e_in_ack_o       $end
$var wire    1  aaaaq  e_in_val_i       $end
$var wire    9  aaaar  e_in_data_i [8:0]  $end
$var wire    1  aaaas  n_out_ack_i       $end
$var wire    1  aaaat  n_out_val_o       $end
$var wire    9  aaaau  n_out_data_o [8:0]  $end
$var wire    1  aaaav  n_in_ack_o       $end
$var wire    1  aaaaw  n_in_val_i       $end
$var wire    9  aaaax  n_in_data_i [8:0]  $end
$var wire    1  aaaay  l_out_ack_i       $end
$var wire    1  aaaaz  l_out_val_o       $end
$var wire    9  aaaba  l_out_data_o [8:0]  $end
$var wire    1  aaabb  l_in_ack_o       $end
$var wire    1  aaabc  l_in_val_i       $end
$var wire    9  aaabd  l_in_data_i [8:0]  $end
$var wire    1  aaabe  rst       $end
$var wire    1  aaabf  clk       $end
$upscope $end
$enddefinitions  $end

$comment
All initial values are dumped below at time 0 sec = 0 timescale units.
$end

$dumpvars
0aaaaa
0aaaab
b0 aaaac
0aaaad
0aaaae
b0 aaaaf
0aaaag
0aaaah
b0 aaaai
0aaaaj
0aaaak
b0 aaaal
0aaaam
0aaaan
b0 aaaao
0aaaap
0aaaaq
b0 aaaar
0aaaas
0aaaat
b0 aaaau
0aaaav
0aaaaw
b0 aaaax
0aaaay
0aaaaz
b0 aaaba
0aaabb
0aaabc
b0 aaabd
1aaabe
1aaabf
$end

#5000
0aaabf

#10000
b100010010 aaabd
0aaabe
1aaabf

#15000
0aaabf

#20000
1aaabc
1aaabf

#25000
0aaabf

#30000
1aaabf

#35000
0aaabf

#40000
1aaabb
1aaabf

#45000
0aaabf

#50000
0aaabc
1aaabf

#55000
0aaabf

#60000
1aaabf

#65000
0aaabf

#70000
0aaabb
1aaabf

#75000
0aaabf

#80000
b1 aaabd
1aaabf

#85000
0aaabf

#90000
1aaabc
1aaabf

#95000
0aaabf

#100000
1aaabf

#105000
0aaabf

#110000
b100010010 aaaau
1aaabb
1aaabf

#115000
0aaabf

#120000
0aaabc
1aaabf

#125000
0aaabf

#130000
1aaaat
1aaabf

#135000
0aaabf

#140000
0aaabb
1aaabf

#145000
0aaabf

#150000
1aaaas
b10 aaabd
1aaabf

#155000
0aaabf

#160000
1aaabc
1aaabf

#165000
0aaabf

#170000
0aaaat
1aaabf

#175000
0aaabf

#180000
0aaaas
1aaabb
1aaabf

#185000
0aaabf

#190000
0aaabc
1aaabf

#195000
0aaabf

#200000
1aaaat
1aaabf

#205000
0aaabf

#210000
0aaabb
1aaabf

#215000
0aaabf

#220000
1aaaas
b1 aaaau
b100000011 aaabd
1aaabf

#225000
0aaabf

#230000
1aaabc
1aaabf

#235000
0aaabf

#240000
0aaaat
1aaabf

#245000
0aaabf

#250000
0aaaas
1aaabb
1aaabf

#255000
0aaabf

#260000
0aaabc
1aaabf

#265000
0aaabf

#270000
1aaaat
1aaabf

#275000
0aaabf

#280000
0aaabb
1aaabf

#285000
0aaabf

#290000
1aaaas
b10 aaaau
b100110001 aaabd
1aaabf

#295000
0aaabf

#300000
1aaabc
1aaabf

#305000
0aaabf

#310000
0aaaat
1aaabf

#315000
0aaabf

#320000
0aaaas
1aaabb
1aaabf

#325000
0aaabf

#330000
0aaabc
1aaabf

#335000
0aaabf

#340000
1aaaat
1aaabf

#345000
0aaabf

#350000
0aaabb
1aaabf

#355000
0aaabf

#360000
1aaaas
b100000011 aaaau
b100 aaabd
1aaabf

#365000
0aaabf

#370000
1aaabc
1aaabf

#375000
0aaabf

#380000
0aaaat
1aaabf

#385000
0aaabf

#390000
0aaaas
1aaabb
1aaabf

#395000
0aaabf

#400000
0aaabc
1aaabf

#405000
0aaabf

#410000
1aaaat
1aaabf

#415000
0aaabf

#420000
0aaabb
1aaabf

#425000
0aaabf

#430000
1aaaas
b0 aaaau
b101 aaabd
1aaabf

#435000
0aaabf

#440000
1aaabc
1aaabf

#445000
0aaabf

#450000
0aaaat
1aaabf

#455000
0aaabf

#460000
0aaaas
1aaabb
1aaabf

#465000
0aaabf

#470000
b100110001 aaaao
0aaabc
1aaabf

#475000
0aaabf

#480000
1aaabf

#485000
0aaabf

#490000
1aaaan
0aaabb
1aaabf

#495000
0aaabf

#500000
b100000110 aaabd
1aaabf

#505000
0aaabf

#510000
1aaaam
1aaabc
1aaabf

#515000
0aaabf

#520000
1aaabf

#525000
0aaabf

#530000
0aaaan
1aaabb
1aaabf

#535000
0aaabf

#540000
0aaaam
0aaabc
1aaabf

#545000
0aaabf

#550000
1aaabf

#555000
0aaabf

#560000
1aaaan
0aaabb
1aaabf

#565000
0aaabf

#570000
b100010000 aaabd
1aaabf

#575000
0aaabf

#580000
1aaaam
b100 aaaao
1aaabc
1aaabf

#585000
0aaabf

#590000
1aaabf

#595000
0aaabf

#600000
0aaaan
1aaabb
1aaabf

#605000
0aaabf

#610000
0aaaam
0aaabc
1aaabf

#615000
0aaabf

#620000
1aaabf

#625000
0aaabf

#630000
1aaaan
0aaabb
1aaabf

#635000
0aaabf

#640000
b111 aaabd
1aaabf

#645000
0aaabf

#650000
1aaaam
b101 aaaao
1aaabc
1aaabf

#655000
0aaabf

#660000
1aaabf

#665000
0aaabf

#670000
0aaaan
1aaabb
1aaabf

#675000
0aaabf

#680000
0aaaam
0aaabc
1aaabf

#685000
0aaabf

#690000
1aaabf

#695000
0aaabf

#700000
1aaaan
0aaabb
1aaabf

#705000
0aaabf

#710000
b1000 aaabd
1aaabf

#715000
0aaabf

#720000
1aaaam
b100000110 aaaao
1aaabc
1aaabf

#725000
0aaabf

#730000
1aaabf

#735000
0aaabf

#740000
0aaaan
1aaabb
1aaabf

#745000
0aaabf

#750000
0aaaam
0aaabc
1aaabf

#755000
0aaabf

#760000
1aaabf

#765000
0aaabf

#770000
1aaaan
0aaabb
1aaabf

#775000
0aaabf

#780000
b100001001 aaabd
1aaabf

#785000
0aaabf

#790000
1aaaam
b0 aaaao
1aaabc
1aaabf

#795000
0aaabf

#800000
1aaabf

#805000
0aaabf

#810000
0aaaan
1aaabb
1aaabf

#815000
0aaabf

#820000
0aaaam
0aaabc
1aaabf

#825000
0aaabf

#830000
b100010000 aaaai
1aaabf

#835000
0aaabf

#840000
0aaabb
1aaabf

#845000
0aaabf

#850000
1aaaah
b100001010 aaabd
1aaabf

#855000
0aaabf

#860000
1aaabc
1aaabf

#865000
0aaabf

#870000
1aaaag
1aaabf

#875000
0aaabf

#880000
1aaabb
1aaabf

#885000
0aaabf

#890000
0aaaah
0aaabc
1aaabf

#895000
0aaabf

#900000
0aaaag
1aaabf

#905000
0aaabf

#910000
0aaabb
1aaabf

#915000
0aaabf

#920000
1aaaah
b1011 aaabd
1aaabf

#925000
0aaabf

#930000
1aaabc
1aaabf

#935000
0aaabf

#940000
1aaaag
b111 aaaai
1aaabf

#945000
0aaabf

#950000
1aaabb
1aaabf

#955000
0aaabf

#960000
0aaaah
0aaabc
1aaabf

#965000
0aaabf

#970000
0aaaag
1aaabf

#975000
0aaabf

#980000
0aaabb
1aaabf

#985000
0aaabf

#990000
1aaaah
b1100 aaabd
1aaabf

#995000
0aaabf

#1000000
1aaabc
1aaabf

#1005000
0aaabf

#1010000
1aaaag
b1000 aaaai
1aaabf

#1015000
0aaabf

#1020000
1aaabb
1aaabf

#1025000
0aaabf

#1030000
0aaaah
0aaabc
1aaabf

#1035000
0aaabf

#1040000
0aaaag
1aaabf

#1045000
0aaabf

#1050000
0aaabb
1aaabf

#1055000
0aaabf

#1060000
1aaaah
b100001101 aaabd
1aaabf

#1065000
0aaabf

#1070000
1aaabc
1aaabf

#1075000
0aaabf

#1080000
1aaaag
b100001001 aaaai
1aaabf

#1085000
0aaabf

#1090000
1aaabb
1aaabf

#1095000
0aaabf

#1100000
0aaaah
0aaabc
1aaabf

#1105000
0aaabf

#1110000
0aaaag
1aaabf

#1115000
0aaabf

#1120000
0aaabb
1aaabf

#1125000
0aaabf

#1130000
1aaaah
b0 aaabd
1aaabf

#1135000
0aaabf

#1140000
1aaabf

#1145000
0aaabf

#1150000
1aaaag
b0 aaaai
1aaabf

#1155000
0aaabf

#1160000
1aaabf

#1165000
0aaabf

#1170000
0aaaah
1aaabf

#1175000
0aaabf

#1180000
0aaaag
1aaabf

#1185000
0aaabf

#1190000
b100001010 aaaac
1aaabf

