XINA/XINA_tb.vcd
$date
     Jan 20, 2024       16:39:40
$end

$version
 SystemC 2.3.4-Accellera --- Jul 16 2023 12:27:40
$end

$timescale
     1 ps
$end

$scope module SystemC $end
$var wire    9  aaaaa  l_in_data_i3 [8:0]  $end
$var wire    9  aaaab  l_in_data_i2 [8:0]  $end
$var wire    9  aaaac  l_in_data_i1 [8:0]  $end
$var wire    9  aaaad  l_in_data_i0 [8:0]  $end
$var wire    1  aaaae  l_out_ack_i3       $end
$var wire    1  aaaaf  l_out_ack_i2       $end
$var wire    1  aaaag  l_out_ack_i1       $end
$var wire    1  aaaah  l_out_ack_i0       $end
$var wire    1  aaaai  l_in_val_i3       $end
$var wire    1  aaaaj  l_in_val_i2       $end
$var wire    1  aaaak  l_in_val_i1       $end
$var wire    1  aaaal  l_in_val_i0       $end
$var wire    1  aaaam  l_out_val_o3       $end
$var wire    1  aaaan  l_out_val_o2       $end
$var wire    1  aaaao  l_out_val_o1       $end
$var wire    1  aaaap  l_out_val_o0       $end
$var wire    1  aaaaq  l_in_ack_o3       $end
$var wire    1  aaaar  l_in_ack_o2       $end
$var wire    1  aaaas  l_in_ack_o1       $end
$var wire    1  aaaat  l_in_ack_o0       $end
$var wire    9  aaaau  l_out_data_o3 [8:0]  $end
$var wire    9  aaaav  l_out_data_o2 [8:0]  $end
$var wire    9  aaaaw  l_out_data_o1 [8:0]  $end
$var wire    9  aaaax  l_out_data_o0 [8:0]  $end
$var wire    1  aaaay  rst       $end
$var wire    1  aaaaz  clk       $end
$var wire    1  aaaba  CLK       $end
$var wire    1  aaabb  CLK       $end
$var wire    1  aaabc  CLK       $end
$var wire    1  aaabd  CLK       $end
$upscope $end
$enddefinitions  $end

$comment
All initial values are dumped below at time 0 sec = 0 timescale units.
$end

$dumpvars
b0 aaaaa
b0 aaaab
b0 aaaac
b100010001 aaaad
0aaaae
0aaaaf
0aaaag
0aaaah
0aaaai
0aaaaj
0aaaak
1aaaal
0aaaam
0aaaan
0aaaao
0aaaap
0aaaaq
0aaaar
0aaaas
0aaaat
b0 aaaau
b0 aaaav
b0 aaaaw
b0 aaaax
1aaaay
1aaaaz
1aaaba
1aaabb
1aaabc
1aaabd
$end

#5000
0aaaaz
0aaaba
0aaabb
0aaabc
0aaabd

#10000
1aaaat
0aaaay
1aaaaz
1aaaba
1aaabb
1aaabc
1aaabd

#15000
0aaaaz
0aaaba
0aaabb
0aaabc
0aaabd

#20000
0aaaal
1aaaaz
1aaaba
1aaabb
1aaabc
1aaabd

#25000
0aaaaz
0aaaba
0aaabb
0aaabc
0aaabd

#30000
b1 aaaad
1aaaal
0aaaat
1aaaaz
1aaaba
1aaabb
1aaabc
1aaabd

#35000
0aaaaz
0aaaba
0aaabb
0aaabc
0aaabd

#40000
1aaaat
1aaaaz
1aaaba
1aaabb
1aaabc
1aaabd

#45000
0aaaaz
0aaaba
0aaabb
0aaabc
0aaabd

#50000
0aaaal
1aaaaz
1aaaba
1aaabb
1aaabc
1aaabd

#55000
0aaaaz
0aaaba
0aaabb
0aaabc
0aaabd

#60000
b10 aaaad
1aaaal
1aaaam
0aaaat
b100010001 aaaau
1aaaaz
1aaaba
1aaabb
1aaabc
1aaabd

#65000
0aaaaz
0aaaba
0aaabb
0aaabc
0aaabd

#70000
1aaaae
1aaaat
1aaaaz
1aaaba
1aaabb
1aaabc
1aaabd

#75000
0aaaaz
0aaaba
0aaabb
0aaabc
0aaabd

#80000
0aaaae
0aaaal
0aaaam
b0 aaaau
1aaaaz
1aaaba
1aaabb
1aaabc
1aaabd

#85000
0aaaaz
0aaaba
0aaabb
0aaabc
0aaabd

#90000
b100000011 aaaad
1aaaal
1aaaam
0aaaat
b1 aaaau
1aaaaz
1aaaba
1aaabb
1aaabc
1aaabd

#95000
0aaaaz
0aaaba
0aaabb
0aaabc
0aaabd

#100000
1aaaae
1aaaat
1aaaaz
1aaaba
1aaabb
1aaabc
1aaabd

#105000
0aaaaz
0aaaba
0aaabb
0aaabc
0aaabd

#110000
0aaaae
0aaaal
0aaaam
b0 aaaau
1aaaaz
1aaaba
1aaabb
1aaabc
1aaabd

#115000
0aaaaz
0aaaba
0aaabb
0aaabc
0aaabd

#120000
b100010001 aaaad
1aaaal
1aaaam
0aaaat
b10 aaaau
1aaaaz
1aaaba
1aaabb
1aaabc
1aaabd

#125000
0aaaaz
0aaaba
0aaabb
0aaabc
0aaabd

#130000
1aaaae
1aaaat
1aaaaz
1aaaba
1aaabb
1aaabc
1aaabd

#135000
0aaaaz
0aaaba
0aaabb
0aaabc
0aaabd

#140000
0aaaae
0aaaal
0aaaam
b0 aaaau
1aaaaz
1aaaba
1aaabb
1aaabc
1aaabd

#145000
0aaaaz
0aaaba
0aaabb
0aaabc
0aaabd

#150000
b101 aaaad
1aaaal
1aaaam
0aaaat
b100000011 aaaau
1aaaaz
1aaaba
1aaabb
1aaabc
1aaabd

#155000
0aaaaz
0aaaba
0aaabb
0aaabc
0aaabd

#160000
1aaaae
1aaaat
1aaaaz
1aaaba
1aaabb
1aaabc
1aaabd

#165000
0aaaaz
0aaaba
0aaabb
0aaabc
0aaabd

#170000
0aaaae
0aaaal
0aaaam
b0 aaaau
1aaaaz
1aaaba
1aaabb
1aaabc
1aaabd

#175000
0aaaaz
0aaaba
0aaabb
0aaabc
0aaabd

#180000
b110 aaaad
1aaaal
1aaaam
0aaaat
b100010001 aaaau
1aaaaz
1aaaba
1aaabb
1aaabc
1aaabd

#185000
0aaaaz
0aaaba
0aaabb
0aaabc
0aaabd

#190000
1aaaae
1aaaat
1aaaaz
1aaaba
1aaabb
1aaabc
1aaabd

#195000
0aaaaz
0aaaba
0aaabb
0aaabc
0aaabd

#200000
0aaaae
0aaaal
0aaaam
b0 aaaau
1aaaaz
1aaaba
1aaabb
1aaabc
1aaabd

#205000
0aaaaz
0aaaba
0aaabb
0aaabc
0aaabd

#210000
b100000111 aaaad
1aaaal
1aaaam
0aaaat
b101 aaaau
1aaaaz
1aaaba
1aaabb
1aaabc
1aaabd

#215000
0aaaaz
0aaaba
0aaabb
0aaabc
0aaabd

#220000
1aaaae
1aaaat
1aaaaz
1aaaba
1aaabb
1aaabc
1aaabd

#225000
0aaaaz
0aaaba
0aaabb
0aaabc
0aaabd

#230000
0aaaae
0aaaal
0aaaam
b0 aaaau
1aaaaz
1aaaba
1aaabb
1aaabc
1aaabd

#235000
0aaaaz
0aaaba
0aaabb
0aaabc
0aaabd

#240000
b100010001 aaaad
1aaaal
1aaaam
0aaaat
b110 aaaau
1aaaaz
1aaaba
1aaabb
1aaabc
1aaabd

#245000
0aaaaz
0aaaba
0aaabb
0aaabc
0aaabd

#250000
1aaaae
1aaaat
1aaaaz
1aaaba
1aaabb
1aaabc
1aaabd

#255000
0aaaaz
0aaaba
0aaabb
0aaabc
0aaabd

#260000
0aaaae
0aaaal
0aaaam
b0 aaaau
1aaaaz
1aaaba
1aaabb
1aaabc
1aaabd

#265000
0aaaaz
0aaaba
0aaabb
0aaabc
0aaabd

#270000
b1001 aaaad
1aaaal
1aaaam
0aaaat
b100000111 aaaau
1aaaaz
1aaaba
1aaabb
1aaabc
1aaabd

#275000
0aaaaz
0aaaba
0aaabb
0aaabc
0aaabd

#280000
1aaaae
1aaaat
1aaaaz
1aaaba
1aaabb
1aaabc
1aaabd

#285000
0aaaaz
0aaaba
0aaabb
0aaabc
0aaabd

#290000
0aaaae
0aaaal
0aaaam
b0 aaaau
1aaaaz
1aaaba
1aaabb
1aaabc
1aaabd

#295000
0aaaaz
0aaaba
0aaabb
0aaabc
0aaabd

#300000
b1010 aaaad
1aaaal
1aaaam
0aaaat
b100010001 aaaau
1aaaaz
1aaaba
1aaabb
1aaabc
1aaabd

#305000
0aaaaz
0aaaba
0aaabb
0aaabc
0aaabd

#310000
1aaaae
1aaaat
1aaaaz
1aaaba
1aaabb
1aaabc
1aaabd

#315000
0aaaaz
0aaaba
0aaabb
0aaabc
0aaabd

#320000
0aaaae
0aaaal
0aaaam
b1 aaaau
1aaaaz
1aaaba
1aaabb
1aaabc
1aaabd

#325000
0aaaaz
0aaaba
0aaabb
0aaabc
0aaabd

#330000
b100001011 aaaad
1aaaal
1aaaam
0aaaat
b1001 aaaau
1aaaaz
1aaaba
1aaabb
1aaabc
1aaabd

#335000
0aaaaz
0aaaba
0aaabb
0aaabc
0aaabd

#340000
1aaaae
1aaaat
1aaaaz
1aaaba
1aaabb
1aaabc
1aaabd

#345000
0aaaaz
0aaaba
0aaabb
0aaabc
0aaabd

#350000
0aaaae
0aaaal
0aaaam
b10 aaaau
1aaaaz
1aaaba
1aaabb
1aaabc
1aaabd

#355000
0aaaaz
0aaaba
0aaabb
0aaabc
0aaabd

#360000
b100010000 aaaad
1aaaal
1aaaam
0aaaat
b1010 aaaau
1aaaaz
1aaaba
1aaabb
1aaabc
1aaabd

#365000
0aaaaz
0aaaba
0aaabb
0aaabc
0aaabd

#370000
1aaaae
1aaaat
1aaaaz
1aaaba
1aaabb
1aaabc
1aaabd

#375000
0aaaaz
0aaaba
0aaabb
0aaabc
0aaabd

#380000
0aaaae
0aaaal
0aaaam
b100000011 aaaau
1aaaaz
1aaaba
1aaabb
1aaabc
1aaabd

#385000
0aaaaz
0aaaba
0aaabb
0aaabc
0aaabd

#390000
b1 aaaad
1aaaal
1aaaam
0aaaat
b100001011 aaaau
1aaaaz
1aaaba
1aaabb
1aaabc
1aaabd

#395000
0aaaaz
0aaaba
0aaabb
0aaabc
0aaabd

#400000
1aaaae
1aaaan
1aaaat
b100010000 aaaav
1aaaaz
1aaaba
1aaabb
1aaabc
1aaabd

#405000
0aaaaz
0aaaba
0aaabb
0aaabc
0aaabd

#410000
0aaaae
1aaaaf
0aaaal
0aaaam
b0 aaaau
1aaaaz
1aaaba
1aaabb
1aaabc
1aaabd

#415000
0aaaaz
0aaaba
0aaabb
0aaabc
0aaabd

#420000
b10 aaaad
0aaaaf
1aaaal
0aaaan
0aaaat
b101 aaaav
1aaaaz
1aaaba
1aaabb
1aaabc
1aaabd

#425000
0aaaaz
0aaaba
0aaabb
0aaabc
0aaabd

#430000
1aaaan
1aaaat
b1 aaaav
1aaaaz
1aaaba
1aaabb
1aaabc
1aaabd

#435000
0aaaaz
0aaaba
0aaabb
0aaabc
0aaabd

#440000
1aaaaf
0aaaal
1aaaaz
1aaaba
1aaabb
1aaabc
1aaabd

#445000
0aaaaz
0aaaba
0aaabb
0aaabc
0aaabd

#450000
b100000011 aaaad
0aaaaf
1aaaal
0aaaan
0aaaat
b110 aaaav
1aaaaz
1aaaba
1aaabb
1aaabc
1aaabd

#455000
0aaaaz
0aaaba
0aaabb
0aaabc
0aaabd

#460000
1aaaan
1aaaat
b10 aaaav
1aaaaz
1aaaba
1aaabb
1aaabc
1aaabd

#465000
0aaaaz
0aaaba
0aaabb
0aaabc
0aaabd

#470000
1aaaaf
0aaaal
1aaaaz
1aaaba
1aaabb
1aaabc
1aaabd

#475000
0aaaaz
0aaaba
0aaabb
0aaabc
0aaabd

#480000
b100010000 aaaac
b0 aaaad
0aaaaf
1aaaak
0aaaan
0aaaat
b100000111 aaaav
1aaaaz
1aaaba
1aaabb
1aaabc
1aaabd

#485000
0aaaaz
0aaaba
0aaabb
0aaabc
0aaabd

#490000
1aaaan
1aaaas
b100000011 aaaav
1aaaaz
1aaaba
1aaabb
1aaabc
1aaabd

#495000
0aaaaz
0aaaba
0aaabb
0aaabc
0aaabd

#500000
1aaaaf
0aaaak
1aaaaz
1aaaba
1aaabb
1aaabc
1aaabd

#505000
0aaaaz
0aaaba
0aaabb
0aaabc
0aaabd

#510000
b1 aaaac
0aaaaf
1aaaak
0aaaan
0aaaas
b0 aaaav
1aaaaz
1aaaba
1aaabb
1aaabc
1aaabd

#515000
0aaaaz
0aaaba
0aaabb
0aaabc
0aaabd

#520000
1aaaas
1aaaaz
1aaaba
1aaabb
1aaabc
1aaabd

#525000
0aaaaz
0aaaba
0aaabb
0aaabc
0aaabd

#530000
0aaaak
1aaaaz
1aaaba
1aaabb
1aaabc
1aaabd

#535000
0aaaaz
0aaaba
0aaabb
0aaabc
0aaabd

#540000
b10 aaaac
1aaaak
1aaaan
0aaaas
b100010000 aaaav
1aaaaz
1aaaba
1aaabb
1aaabc
1aaabd

#545000
0aaaaz
0aaaba
0aaabb
0aaabc
0aaabd

#550000
1aaaaf
1aaaas
1aaaaz
1aaaba
1aaabb
1aaabc
1aaabd

#555000
0aaaaz
0aaaba
0aaabb
0aaabc
0aaabd

#560000
0aaaaf
0aaaak
0aaaan
b0 aaaav
1aaaaz
1aaaba
1aaabb
1aaabc
1aaabd

#565000
0aaaaz
0aaaba
0aaabb
0aaabc
0aaabd

#570000
b100000011 aaaac
1aaaak
1aaaan
0aaaas
b1 aaaav
1aaaaz
1aaaba
1aaabb
1aaabc
1aaabd

#575000
0aaaaz
0aaaba
0aaabb
0aaabc
0aaabd

#580000
1aaaaf
1aaaas
1aaaaz
1aaaba
1aaabb
1aaabc
1aaabd

#585000
0aaaaz
0aaaba
0aaabb
0aaabc
0aaabd

#590000
0aaaaf
0aaaak
0aaaan
b0 aaaav
1aaaaz
1aaaba
1aaabb
1aaabc
1aaabd

#595000
0aaaaz
0aaaba
0aaabb
0aaabc
0aaabd

#600000
b100010000 aaaac
1aaaak
1aaaan
0aaaas
b10 aaaav
1aaaaz
1aaaba
1aaabb
1aaabc
1aaabd

#605000
0aaaaz
0aaaba
0aaabb
0aaabc
0aaabd

#610000
1aaaaf
1aaaas
1aaaaz
1aaaba
1aaabb
1aaabc
1aaabd

#615000
0aaaaz
0aaaba
0aaabb
0aaabc
0aaabd

#620000
0aaaaf
0aaaak
0aaaan
b0 aaaav
1aaaaz
1aaaba
1aaabb
1aaabc
1aaabd

#625000
0aaaaz
0aaaba
0aaabb
0aaabc
0aaabd

#630000
b101 aaaac
1aaaak
1aaaan
0aaaas
b100000011 aaaav
1aaaaz
1aaaba
1aaabb
1aaabc
1aaabd

#635000
0aaaaz
0aaaba
0aaabb
0aaabc
0aaabd

#640000
1aaaaf
1aaaas
1aaaaz
1aaaba
1aaabb
1aaabc
1aaabd

#645000
0aaaaz
0aaaba
0aaabb
0aaabc
0aaabd

#650000
0aaaaf
0aaaak
0aaaan
b0 aaaav
1aaaaz
1aaaba
1aaabb
1aaabc
1aaabd

#655000
0aaaaz
0aaaba
0aaabb
0aaabc
0aaabd

#660000
b110 aaaac
1aaaak
1aaaan
0aaaas
b100010000 aaaav
1aaaaz
1aaaba
1aaabb
1aaabc
1aaabd

#665000
0aaaaz
0aaaba
0aaabb
0aaabc
0aaabd

#670000
1aaaaf
1aaaas
1aaaaz
1aaaba
1aaabb
1aaabc
1aaabd

#675000
0aaaaz
0aaaba
0aaabb
0aaabc
0aaabd

#680000
0aaaaf
0aaaak
0aaaan
b0 aaaav
1aaaaz
1aaaba
1aaabb
1aaabc
1aaabd

#685000
0aaaaz
0aaaba
0aaabb
0aaabc
0aaabd

#690000
b100000111 aaaac
1aaaak
1aaaan
0aaaas
b101 aaaav
1aaaaz
1aaaba
1aaabb
1aaabc
1aaabd

#695000
0aaaaz
0aaaba
0aaabb
0aaabc
0aaabd

#700000
1aaaaf
1aaaas
1aaaaz
1aaaba
1aaabb
1aaabc
1aaabd

#705000
0aaaaz
0aaaba
0aaabb
0aaabc
0aaabd

#710000
0aaaaf
0aaaak
0aaaan
b0 aaaav
1aaaaz
1aaaba
1aaabb
1aaabc
1aaabd

#715000
0aaaaz
0aaaba
0aaabb
0aaabc
0aaabd

#720000
b100010000 aaaac
1aaaak
1aaaan
0aaaas
b110 aaaav
1aaaaz
1aaaba
1aaabb
1aaabc
1aaabd

#725000
0aaaaz
0aaaba
0aaabb
0aaabc
0aaabd

#730000
1aaaaf
1aaaas
1aaaaz
1aaaba
1aaabb
1aaabc
1aaabd

#735000
0aaaaz
0aaaba
0aaabb
0aaabc
0aaabd

#740000
0aaaaf
0aaaak
0aaaan
b0 aaaav
1aaaaz
1aaaba
1aaabb
1aaabc
1aaabd

#745000
0aaaaz
0aaaba
0aaabb
0aaabc
0aaabd

#750000
b1001 aaaac
1aaaak
1aaaan
0aaaas
b100000111 aaaav
1aaaaz
1aaaba
1aaabb
1aaabc
1aaabd

#755000
0aaaaz
0aaaba
0aaabb
0aaabc
0aaabd

#760000
1aaaaf
1aaaas
1aaaaz
1aaaba
1aaabb
1aaabc
1aaabd

#765000
0aaaaz
0aaaba
0aaabb
0aaabc
0aaabd

#770000
0aaaaf
0aaaak
0aaaan
b0 aaaav
1aaaaz
1aaaba
1aaabb
1aaabc
1aaabd

#775000
0aaaaz
0aaaba
0aaabb
0aaabc
0aaabd

#780000
b1010 aaaac
1aaaak
1aaaan
0aaaas
b100010000 aaaav
1aaaaz
1aaaba
1aaabb
1aaabc
1aaabd

#785000
0aaaaz
0aaaba
0aaabb
0aaabc
0aaabd

#790000
1aaaaf
1aaaas
1aaaaz
1aaaba
1aaabb
1aaabc
1aaabd

#795000
0aaaaz
0aaaba
0aaabb
0aaabc
0aaabd

#800000
0aaaaf
0aaaak
0aaaan
b1 aaaav
1aaaaz
1aaaba
1aaabb
1aaabc
1aaabd

#805000
0aaaaz
0aaaba
0aaabb
0aaabc
0aaabd

#810000
b100001011 aaaac
1aaaak
1aaaan
0aaaas
b1001 aaaav
1aaaaz
1aaaba
1aaabb
1aaabc
1aaabd

#815000
0aaaaz
0aaaba
0aaabb
0aaabc
0aaabd

#820000
1aaaaf
1aaaas
1aaaaz
1aaaba
1aaabb
1aaabc
1aaabd

#825000
0aaaaz
0aaaba
0aaabb
0aaabc
0aaabd

#830000
0aaaaf
0aaaak
0aaaan
b10 aaaav
1aaaaz
1aaaba
1aaabb
1aaabc
1aaabd

#835000
0aaaaz
0aaaba
0aaabb
0aaabc
0aaabd

#840000
b100000001 aaaab
b0 aaaac
1aaaaj
1aaaan
0aaaas
b1010 aaaav
1aaaaz
1aaaba
1aaabb
1aaabc
1aaabd

#845000
0aaaaz
0aaaba
0aaabb
0aaabc
0aaabd

#850000
1aaaaf
1aaaar
1aaaaz
1aaaba
1aaabb
1aaabc
1aaabd

#855000
0aaaaz
0aaaba
0aaabb
0aaabc
0aaabd

#860000
0aaaaf
0aaaaj
0aaaan
b100000011 aaaav
1aaaaz
1aaaba
1aaabb
1aaabc
1aaabd

#865000
0aaaaz
0aaaba
0aaabb
0aaabc
0aaabd

#870000
b1 aaaab
1aaaaj
1aaaan
0aaaar
b100001011 aaaav
1aaaaz
1aaaba
1aaabb
1aaabc
1aaabd

#875000
0aaaaz
0aaaba
0aaabb
0aaabc
0aaabd

#880000
1aaaaf
1aaaar
1aaaaz
1aaaba
1aaabb
1aaabc
1aaabd

#885000
0aaaaz
0aaaba
0aaabb
0aaabc
0aaabd

#890000
0aaaaf
0aaaaj
0aaaan
b0 aaaav
1aaaaz
1aaaba
1aaabb
1aaabc
1aaabd

#895000
0aaaaz
0aaaba
0aaabb
0aaabc
0aaabd

#900000
b10 aaaab
1aaaaj
1aaaao
0aaaar
b100000001 aaaaw
1aaaaz
1aaaba
1aaabb
1aaabc
1aaabd

#905000
0aaaaz
0aaaba
0aaabb
0aaabc
0aaabd

#910000
1aaaag
1aaaar
1aaaaz
1aaaba
1aaabb
1aaabc
1aaabd

#915000
0aaaaz
0aaaba
0aaabb
0aaabc
0aaabd

#920000
0aaaag
0aaaaj
0aaaao
b0 aaaaw
1aaaaz
1aaaba
1aaabb
1aaabc
1aaabd

#925000
0aaaaz
0aaaba
0aaabb
0aaabc
0aaabd

#930000
b100000011 aaaab
1aaaaj
1aaaao
0aaaar
b1 aaaaw
1aaaaz
1aaaba
1aaabb
1aaabc
1aaabd

#935000
0aaaaz
0aaaba
0aaabb
0aaabc
0aaabd

#940000
1aaaag
1aaaar
1aaaaz
1aaaba
1aaabb
1aaabc
1aaabd

#945000
0aaaaz
0aaaba
0aaabb
0aaabc
0aaabd

#950000
0aaaag
0aaaaj
0aaaao
b0 aaaaw
1aaaaz
1aaaba
1aaabb
1aaabc
1aaabd

#955000
0aaaaz
0aaaba
0aaabb
0aaabc
0aaabd

#960000
b100000001 aaaab
1aaaaj
1aaaao
0aaaar
b10 aaaaw
1aaaaz
1aaaba
1aaabb
1aaabc
1aaabd

#965000
0aaaaz
0aaaba
0aaabb
0aaabc
0aaabd

#970000
1aaaag
1aaaar
1aaaaz
1aaaba
1aaabb
1aaabc
1aaabd

#975000
0aaaaz
0aaaba
0aaabb
0aaabc
0aaabd

#980000
0aaaag
0aaaaj
0aaaao
b0 aaaaw
1aaaaz
1aaaba
1aaabb
1aaabc
1aaabd

#985000
0aaaaz
0aaaba
0aaabb
0aaabc
0aaabd

#990000
b101 aaaab
1aaaaj
1aaaao
0aaaar
b100000011 aaaaw
1aaaaz
1aaaba
1aaabb
1aaabc
1aaabd

#995000
0aaaaz
0aaaba
0aaabb
0aaabc
0aaabd

#1000000
1aaaag
1aaaar
1aaaaz
1aaaba
1aaabb
1aaabc
1aaabd

#1005000
0aaaaz
0aaaba
0aaabb
0aaabc
0aaabd

#1010000
0aaaag
0aaaaj
0aaaao
b0 aaaaw
1aaaaz
1aaaba
1aaabb
1aaabc
1aaabd

#1015000
0aaaaz
0aaaba
0aaabb
0aaabc
0aaabd

#1020000
b110 aaaab
1aaaaj
1aaaao
0aaaar
b100000001 aaaaw
1aaaaz
1aaaba
1aaabb
1aaabc
1aaabd

#1025000
0aaaaz
0aaaba
0aaabb
0aaabc
0aaabd

#1030000
1aaaag
1aaaar
1aaaaz
1aaaba
1aaabb
1aaabc
1aaabd

#1035000
0aaaaz
0aaaba
0aaabb
0aaabc
0aaabd

#1040000
0aaaag
0aaaaj
0aaaao
b0 aaaaw
1aaaaz
1aaaba
1aaabb
1aaabc
1aaabd

#1045000
0aaaaz
0aaaba
0aaabb
0aaabc
0aaabd

#1050000
b100000111 aaaab
1aaaaj
1aaaao
0aaaar
b101 aaaaw
1aaaaz
1aaaba
1aaabb
1aaabc
1aaabd

#1055000
0aaaaz
0aaaba
0aaabb
0aaabc
0aaabd

#1060000
1aaaag
1aaaar
1aaaaz
1aaaba
1aaabb
1aaabc
1aaabd

#1065000
0aaaaz
0aaaba
0aaabb
0aaabc
0aaabd

#1070000
0aaaag
0aaaaj
0aaaao
b0 aaaaw
1aaaaz
1aaaba
1aaabb
1aaabc
1aaabd

#1075000
0aaaaz
0aaaba
0aaabb
0aaabc
0aaabd

#1080000
b100000001 aaaab
1aaaaj
1aaaao
0aaaar
b110 aaaaw
1aaaaz
1aaaba
1aaabb
1aaabc
1aaabd

#1085000
0aaaaz
0aaaba
0aaabb
0aaabc
0aaabd

#1090000
1aaaag
1aaaar
1aaaaz
1aaaba
1aaabb
1aaabc
1aaabd

#1095000
0aaaaz
0aaaba
0aaabb
0aaabc
0aaabd

#1100000
0aaaag
0aaaaj
0aaaao
b0 aaaaw
1aaaaz
1aaaba
1aaabb
1aaabc
1aaabd

#1105000
0aaaaz
0aaaba
0aaabb
0aaabc
0aaabd

#1110000
b1001 aaaab
1aaaaj
1aaaao
0aaaar
b100000111 aaaaw
1aaaaz
1aaaba
1aaabb
1aaabc
1aaabd

#1115000
0aaaaz
0aaaba
0aaabb
0aaabc
0aaabd

#1120000
1aaaag
1aaaar
1aaaaz
1aaaba
1aaabb
1aaabc
1aaabd

#1125000
0aaaaz
0aaaba
0aaabb
0aaabc
0aaabd

#1130000
0aaaag
0aaaaj
0aaaao
b0 aaaaw
1aaaaz
1aaaba
1aaabb
1aaabc
1aaabd

#1135000
0aaaaz
0aaaba
0aaabb
0aaabc
0aaabd

#1140000
b1010 aaaab
1aaaaj
1aaaao
0aaaar
b100000001 aaaaw
1aaaaz
1aaaba
1aaabb
1aaabc
1aaabd

#1145000
0aaaaz
0aaaba
0aaabb
0aaabc
0aaabd

#1150000
1aaaag
1aaaar
1aaaaz
1aaaba
1aaabb
1aaabc
1aaabd

#1155000
0aaaaz
0aaaba
0aaabb
0aaabc
0aaabd

#1160000
0aaaag
0aaaaj
0aaaao
b1 aaaaw
1aaaaz
1aaaba
1aaabb
1aaabc
1aaabd

#1165000
0aaaaz
0aaaba
0aaabb
0aaabc
0aaabd

#1170000
b100001011 aaaab
1aaaaj
1aaaao
0aaaar
b1001 aaaaw
1aaaaz
1aaaba
1aaabb
1aaabc
1aaabd

#1175000
0aaaaz
0aaaba
0aaabb
0aaabc
0aaabd

#1180000
1aaaag
1aaaar
1aaaaz
1aaaba
1aaabb
1aaabc
1aaabd

#1185000
0aaaaz
0aaaba
0aaabb
0aaabc
0aaabd

#1190000
0aaaag
0aaaaj
0aaaao
b10 aaaaw
1aaaaz
1aaaba
1aaabb
1aaabc
1aaabd

#1195000
0aaaaz
0aaaba
0aaabb
0aaabc
0aaabd

#1200000
b100000000 aaaaa
b0 aaaab
1aaaai
1aaaao
0aaaar
b1010 aaaaw
1aaaaz
1aaaba
1aaabb
1aaabc
1aaabd

#1205000
0aaaaz
0aaaba
0aaabb
0aaabc
0aaabd

#1210000
1aaaag
1aaaaq
1aaaaz
1aaaba
1aaabb
1aaabc
1aaabd

#1215000
0aaaaz
0aaaba
0aaabb
0aaabc
0aaabd

#1220000
0aaaag
0aaaai
0aaaao
b100000011 aaaaw
1aaaaz
1aaaba
1aaabb
1aaabc
1aaabd

#1225000
0aaaaz
0aaaba
0aaabb
0aaabc
0aaabd

#1230000
b1 aaaaa
1aaaai
1aaaao
0aaaaq
b100001011 aaaaw
1aaaaz
1aaaba
1aaabb
1aaabc
1aaabd

#1235000
0aaaaz
0aaaba
0aaabb
0aaabc
0aaabd

#1240000
1aaaag
1aaaaq
1aaaaz
1aaaba
1aaabb
1aaabc
1aaabd

#1245000
0aaaaz
0aaaba
0aaabb
0aaabc
0aaabd

#1250000
0aaaag
0aaaai
0aaaao
b0 aaaaw
1aaaaz
1aaaba
1aaabb
1aaabc
1aaabd

#1255000
0aaaaz
0aaaba
0aaabb
0aaabc
0aaabd

#1260000
b10 aaaaa
1aaaai
1aaaap
0aaaaq
b100000000 aaaax
1aaaaz
1aaaba
1aaabb
1aaabc
1aaabd

#1265000
0aaaaz
0aaaba
0aaabb
0aaabc
0aaabd

#1270000
1aaaah
1aaaaq
1aaaaz
1aaaba
1aaabb
1aaabc
1aaabd

#1275000
0aaaaz
0aaaba
0aaabb
0aaabc
0aaabd

#1280000
0aaaah
0aaaai
0aaaap
b0 aaaax
1aaaaz
1aaaba
1aaabb
1aaabc
1aaabd

#1285000
0aaaaz
0aaaba
0aaabb
0aaabc
0aaabd

#1290000
b100000011 aaaaa
1aaaai
1aaaap
0aaaaq
b1 aaaax
1aaaaz
1aaaba
1aaabb
1aaabc
1aaabd

#1295000
0aaaaz
0aaaba
0aaabb
0aaabc
0aaabd

#1300000
1aaaah
1aaaaq
1aaaaz
1aaaba
1aaabb
1aaabc
1aaabd

#1305000
0aaaaz
0aaaba
0aaabb
0aaabc
0aaabd

#1310000
0aaaah
0aaaai
0aaaap
b0 aaaax
1aaaaz
1aaaba
1aaabb
1aaabc
1aaabd

#1315000
0aaaaz
0aaaba
0aaabb
0aaabc
0aaabd

#1320000
b100000000 aaaaa
1aaaai
1aaaap
0aaaaq
b10 aaaax
1aaaaz
1aaaba
1aaabb
1aaabc
1aaabd

#1325000
0aaaaz
0aaaba
0aaabb
0aaabc
0aaabd

#1330000
1aaaah
1aaaaq
1aaaaz
1aaaba
1aaabb
1aaabc
1aaabd

#1335000
0aaaaz
0aaaba
0aaabb
0aaabc
0aaabd

#1340000
0aaaah
0aaaai
0aaaap
b0 aaaax
1aaaaz
1aaaba
1aaabb
1aaabc
1aaabd

#1345000
0aaaaz
0aaaba
0aaabb
0aaabc
0aaabd

#1350000
b101 aaaaa
1aaaai
1aaaap
0aaaaq
b100000011 aaaax
1aaaaz
1aaaba
1aaabb
1aaabc
1aaabd

#1355000
0aaaaz
0aaaba
0aaabb
0aaabc
0aaabd

#1360000
1aaaah
1aaaaq
1aaaaz
1aaaba
1aaabb
1aaabc
1aaabd

#1365000
0aaaaz
0aaaba
0aaabb
0aaabc
0aaabd

#1370000
0aaaah
0aaaai
0aaaap
b0 aaaax
1aaaaz
1aaaba
1aaabb
1aaabc
1aaabd

#1375000
0aaaaz
0aaaba
0aaabb
0aaabc
0aaabd

#1380000
b110 aaaaa
1aaaai
1aaaap
0aaaaq
b100000000 aaaax
1aaaaz
1aaaba
1aaabb
1aaabc
1aaabd

#1385000
0aaaaz
0aaaba
0aaabb
0aaabc
0aaabd

#1390000
1aaaah
1aaaaq
1aaaaz
1aaaba
1aaabb
1aaabc
1aaabd

#1395000
0aaaaz
0aaaba
0aaabb
0aaabc
0aaabd

#1400000
0aaaah
0aaaai
0aaaap
b0 aaaax
1aaaaz
1aaaba
1aaabb
1aaabc
1aaabd

#1405000
0aaaaz
0aaaba
0aaabb
0aaabc
0aaabd

#1410000
b100000111 aaaaa
1aaaai
1aaaap
0aaaaq
b101 aaaax
1aaaaz
1aaaba
1aaabb
1aaabc
1aaabd

#1415000
0aaaaz
0aaaba
0aaabb
0aaabc
0aaabd

#1420000
1aaaah
1aaaaq
1aaaaz
1aaaba
1aaabb
1aaabc
1aaabd

#1425000
0aaaaz
0aaaba
0aaabb
0aaabc
0aaabd

#1430000
0aaaah
0aaaai
0aaaap
b0 aaaax
1aaaaz
1aaaba
1aaabb
1aaabc
1aaabd

#1435000
0aaaaz
0aaaba
0aaabb
0aaabc
0aaabd

#1440000
b100000000 aaaaa
1aaaai
1aaaap
0aaaaq
b110 aaaax
1aaaaz
1aaaba
1aaabb
1aaabc
1aaabd

#1445000
0aaaaz
0aaaba
0aaabb
0aaabc
0aaabd

