XRouting/routing_xy_tb.vcd
$date
     Nov 02, 2023       19:20:22
$end

$version
 SystemC 2.3.4-Accellera --- Jul 16 2023 12:27:40
$end

$timescale
     1 ps
$end

$scope module SystemC $end
$var wire    1  aaaaa  req_w_o       $end
$var wire    1  aaaab  req_s_o       $end
$var wire    1  aaaac  req_e_o       $end
$var wire    1  aaaad  req_n_o       $end
$var wire    1  aaaae  req_l_o       $end
$var wire    1  aaaaf  rd_i       $end
$var wire    1  aaaag  rok_i       $end
$var wire    8  aaaah  data_i [7:0]  $end
$var wire    1  aaaai  frame_i       $end
$var wire    1  aaaaj  rst_i       $end
$var wire    1  aaaak  clk_i       $end
$upscope $end
$enddefinitions  $end

$comment
All initial values are dumped below at time 0 sec = 0 timescale units.
$end

$dumpvars
0aaaaa
0aaaab
0aaaac
0aaaad
0aaaae
0aaaaf
1aaaag
b10010 aaaah
1aaaai
1aaaaj
1aaaak
$end

#5000
0aaaak

#10000
1aaaaf
0aaaaj
1aaaak

#15000
0aaaak

#20000
1aaaad
0aaaaf
b10 aaaah
0aaaai
1aaaak

#25000
0aaaak

#30000
1aaaaf
1aaaak

#35000
0aaaak

#40000
0aaaaf
b101 aaaah
1aaaak

#45000
0aaaak

#50000
1aaaaf
1aaaak

#55000
0aaaak

#60000
0aaaaf
b111 aaaah
1aaaai
1aaaak

#65000
0aaaak

#70000
1aaaaf
1aaaak

#75000
0aaaak

#80000
0aaaaf
b100001 aaaah
1aaaak

#85000
0aaaak

#90000
0aaaad
1aaaaf
1aaaak

#95000
0aaaak

#100000
1aaaad
0aaaaf
b10 aaaah
0aaaai
1aaaak

#105000
0aaaak

#110000
1aaaac
0aaaad
1aaaaf
1aaaak

#115000
0aaaak

#120000
0aaaac
1aaaad
0aaaaf
b101 aaaah
1aaaak

#125000
0aaaak

#130000
1aaaac
0aaaad
1aaaaf
1aaaak

#135000
0aaaak

#140000
0aaaac
1aaaad
0aaaaf
b111 aaaah
1aaaai
1aaaak

#145000
0aaaak

#150000
1aaaac
0aaaad
1aaaaf
1aaaak

#155000
0aaaak

#160000
0aaaac
1aaaad
0aaaaf
b10000 aaaah
1aaaak

#165000
0aaaak

#170000
0aaaad
1aaaaf
1aaaak

#175000
0aaaak

#180000
1aaaad
0aaaaf
b10 aaaah
0aaaai
1aaaak

#185000
0aaaak

#190000
1aaaab
0aaaad
1aaaaf
1aaaak

#195000
0aaaak

#200000
0aaaab
1aaaad
0aaaaf
b101 aaaah
1aaaak

#205000
0aaaak

#210000
1aaaab
0aaaad
1aaaaf
1aaaak

#215000
0aaaak

#220000
0aaaab
1aaaad
0aaaaf
b111 aaaah
1aaaai
1aaaak

#225000
0aaaak

#230000
1aaaab
0aaaad
1aaaaf
1aaaak

#235000
0aaaak

#240000
0aaaab
1aaaad
0aaaaf
b1 aaaah
1aaaak

#245000
0aaaak

#250000
0aaaad
1aaaaf
1aaaak

#255000
0aaaak

#260000
1aaaad
0aaaaf
b10 aaaah
0aaaai
1aaaak

#265000
0aaaak

#270000
1aaaaa
0aaaad
1aaaaf
1aaaak

#275000
0aaaak

#280000
0aaaaa
1aaaad
0aaaaf
b101 aaaah
1aaaak

#285000
0aaaak

#290000
1aaaaa
0aaaad
1aaaaf
1aaaak

#295000
0aaaak

#300000
0aaaaa
1aaaad
0aaaaf
b111 aaaah
1aaaai
1aaaak

#305000
0aaaak

#310000
1aaaaa
0aaaad
1aaaaf
1aaaak

#315000
0aaaak

#320000
0aaaaa
1aaaad
0aaaai
1aaaak

#325000
0aaaak

#330000
0aaaad
1aaaak

#335000
0aaaak

#340000
1aaaad
1aaaak

#345000
0aaaak

#350000
0aaaad
1aaaak

#355000
0aaaak

#360000
1aaaad
1aaaak

